GXDB000849779 1
GXDB000849780 2
GXDB000849781 3
GXDB000849782 4
GXDB000849783 5
GXDB000849793 6
GXDB000849795 7
GXDB000849801 8 
GXDB000849802 9 
GXDB000849803 11
GXDB000849804
GXDB000849805
GXDB000849809
GXDB000849811
GXDB000849813
GXDB000849819
GXDB000849820
GXDB000849822
GXDB000849823
GXDB000849824
GXDB000849827
GXDB000849828
GXDB000849829
GXDB000849839
GXDB000849841
GXDB000849842
GXDB000849843
GXDB000849845
GXDB000849846
GXDB000849847
GXDB000849850
GXDB000849851
GXDB000849852
GXDB000849853
GXDB000849854
GXDB000849855
GXDB000849856
GXDB000849857
GXDB000849859
GXDB000849860
GXDB000849861
GXDB000849863
GXDB000849865
GXDB000849866
GXDB000849867
GXDB000849870
GXDB000849873
GXDB000849875
GXDB000849880
GXDB000849881
GXDB000849889
GXDB000849894
GXDB000849914
GXDB000849918
GXDB000849919
GXDB000849920
GXDB000849923
GXDB000849924
GXDB000849925
GXDB000849929
GXDB000849933
GXDB000849934
GXDB000849935
GXDB000849936
GXDB000849937
GXDB000849938
GXDB000849939
GXDB000849941
GXDB000849942
GXDB000849943
GXDB000849944
GXDB000849945
GXDB000849946
GXDB000849947
GXDB000849948
GXDB000849949
GXDB000849965
GXDB000849970
GXDB000849971
GXDB000849974
GXDB000849975
GXDB000849977
GXDB000849981
GXDB000849982
GXDB000849983
GXDB000849984
GXDB000849985
GXDB000849986
GXDB000849987
GXDB000849988
GXDB000849989
GXDB000849990
GXDB000849991
GXDB000849992
GXDB000849993
GXDB000849994
GXDB000850000
GXDB000850001
GXDB000850003
GXDB000850005
GXDB000850006
GXDB000850007
GXDB000850008
GXDB000850009
GXDB000850010
GXDB000850012
GXDB000850013
GXDB000850014
GXDB000850015
GXDB000850026
GXDB000850028
GXDB000850029
GXDB000850031
GXDB000850033
GXDB000850035
GXDB000850037
GXDB000850038
GXDB000850044
GXDB000850045
GXDB000850049
GXDB000850055
GXDB000850056
GXDB000850057
GXDB000850064
GXDB000850065
GXDB000850070
GXDB000850071
GXDB000850073
GXDB000850075
GXDB000850076
GXDB000850077
GXDB000850078
GXDB000850079
GXDB000850080
GXDB000850081
GXDB000850082
GXDB000850088
GXDB000850090
GXDB000850093
GXDB000850099
GXDB000850101
GXDB000850104
GXDB000850105
GXDB000850107
GXDB000850108
GXDB000850109
GXDB000850116
GXDB000850127
GXDB000850134
GXDB000850135
GXDB000850140
GXDB000850145
GXDB000850154
GXDB000850155
GXDB000850168
GXDB000850169
GXDB000850170
GXDB000850171
GXDB000850174
GXDB000850175
GXDB000850177
GXDB000850178
GXDB000850179
GXDB000850181
GXDB000850182
GXDB000850183
GXDB000850185
GXDB000850186
GXDB000850189
GXDB000850191
GXDB000850192
GXDB000850193
GXDB000850195
GXDB000850196
GXDB000850197
GXDB000850200
GXDB000850201
GXDB000850202
GXDB000850203
GXDB000850205
GXDB000850211
GXDB000850212
GXDB000850215
GXDB000850216
GXDB000850221
GXDB000850222
GXDB000850227
GXDB000850228
GXDB000850232
GXDB000850236
GXDB000850237
GXDB000850238
GXDB000850239
GXDB000850240
GXDB000850241
GXDB000850242
GXDB000850244
GXDB000850245
GXDB000850248
GXDB000850249
GXDB000850253
GXDB000850256
GXDB000850274
GXDB000850275
GXDB000850276
GXDB000850284
GXDB000850286
GXDB000850294
GXDB000850295
GXDB000850299
GXDB000850301
GXDB000850304
GXDB000850306
GXDB000850310
GXDB000850311
GXDB000850312
GXDB000850317
GXDB000850318
GXDB000850319
GXDB000850320
GXDB000850321
GXDB000850323
GXDB000850325
GXDB000850326
GXDB000850327
GXDB000850334
GXDB000850337
GXDB000850338
GXDB000850339
GXDB000850350
GXDB000850355
GXDB000850369
GXDB000850374
GXDB000850375
GXDB000850378
GXDB000850380
GXDB000850384
GXDB000850386
GXDB000850387
GXDB000850389
GXDB000850390
GXDB000850391
GXDB000850392
GXDB000850398
GXDB000850399
GXDB000850403
GXDB000850404
GXDB000850405
GXDB000850410
GXDB000850413
GXDB000850414
GXDB000850417
GXDB000850419
GXDB000850425
GXDB000850426
GXDB000850427
GXDB000850429
GXDB000850432
GXDB000850434
GXDB000850435
GXDB000850438
GXDB000850441
GXDB000850442
GXDB000850443
GXDB000850444
GXDB000850445
GXDB000850446
GXDB000850447
GXDB000850448
GXDB000850449
GXDB000850450
GXDB000850451
GXDB000850452
GXDB000850458
GXDB000850459
GXDB000850460
GXDB000850461
GXDB000850462
GXDB000850463
GXDB000850464
GXDB000850472
GXDB000850476
GXDB000850479
GXDB000850480
GXDB000850481
GXDB000850482
GXDB000850483
GXDB000850485
GXDB000850487
GXDB000850491
GXDB000850494
GXDB000850495
GXDB000850496
GXDB000850497
GXDB000850498
GXDB000850499
GXDB000850500
GXDB000850501
GXDB000850504
GXDB000850505
GXDB000850507
GXDB000850508
GXDB000850509
GXDB000850511
GXDB000850512
GXDB000850516
GXDB000850517
GXDB000850518
GXDB000850520
GXDB000850521
GXDB000850522
GXDB000850523
GXDB000850526
GXDB000850530
GXDB000850531
GXDB000850532
GXDB000850538
GXDB000850540
GXDB000850542
GXDB000850543
GXDB000850544
GXDB000850553
GXDB000850554
GXDB000850555
GXDB000850556
GXDB000850559
GXDB000850560
GXDB000850561
GXDB000850563
GXDB000850566
GXDB000850569
GXDB000850575
GXDB000850585
GXDB000850587
GXDB000850588
GXDB000850589
GXDB000850591
GXDB000850593
GXDB000850595
GXDB000850598
GXDB000850611
GXDB000850615
GXDB000850620
GXDB000850622
GXDB000850623
GXDB000850624
GXDB000850625
GXDB000850626
GXDB000850627
GXDB000850628
GXDB000850629
GXDB000850632
GXDB000850633
GXDB000850634
GXDB000850635
GXDB000850643
GXDB000850649
GXDB000850652
GXDB000850658
GXDB000850663
GXDB000850665
GXDB000850667
GXDB000850672
GXDB000850673
GXDB000850674
GXDB000850675
GXDB000850676
GXDB000850677
GXDB000850681
GXDB000850682
GXDB000850687
GXDB000850689
GXDB000850690
GXDB000850692
GXDB000850693
GXDB000850694
GXDB000850696
GXDB000850697
GXDB000850705
GXDB000850706
GXDB000850710
GXDB000850711
GXDB000850712
GXDB000850713
GXDB000850714
GXDB000850715
GXDB000850724
GXDB000850725
GXDB000850726
GXDB000850729
GXDB000850731
GXDB000850733
GXDB000850734
GXDB000850735
GXDB000850736
GXDB000850741
GXDB000850742
GXDB000850749
GXDB000850751
GXDB000850756
GXDB000850757
GXDB000850765
GXDB000850766
GXDB000850770
GXDB000850777
GXDB000850788
GXDB000850791
GXDB000850794
GXDB000850809
GXDB000850810
GXDB000850813
GXDB000850822
GXDB000850827
GXDB000850829
GXDB000850830
GXDB000850833
GXDB000850834
GXDB000850835
GXDB000850836
GXDB000850837
GXDB000850840
GXDB000850843
GXDB000850844
GXDB000850846
GXDB000850847
GXDB000850850
GXDB000850851
GXDB000850854
GXDB000850857
GXDB000850859
GXDB000850864
GXDB000850865
GXDB000850866
GXDB000850867
GXDB000850868
GXDB000850869
GXDB000850873
GXDB000850874
GXDB000850875
GXDB000850877
GXDB000850878
GXDB000850881
GXDB000850884
GXDB000850887
GXDB000850890
GXDB000850891
GXDB000850892
GXDB000850893
GXDB000850900
GXDB000850901
GXDB000850902
GXDB000850908
GXDB000850909
GXDB000850911
GXDB000850913
GXDB000850916
GXDB000850917
GXDB000850930
GXDB000850939
GXDB000850940
